﻿Build started 05-Jan-15 4:32:31 PM.
     1>Project "D:\Codes and Projects\Visual Studio 2012\Projects\polynomial\PolynomialRootFinder\PolynomialRootFinder.vcxproj" on node 2 (Build target(s)).
     1>ClCompile:
         C:\Program Files (x86)\Microsoft Visual Studio 11.0\VC\bin\CL.exe /c /ZI /nologo /W3 /WX- /Od /Oy- /D WIN32 /D _DEBUG /D _CONSOLE /D _UNICODE /D UNICODE /Gm /EHsc /RTC1 /MDd /GS /fp:precise /Zc:wchar_t /Zc:forScope /Yc"stdafx.h" /Fp"Debug\PolynomialRootFinder.pch" /Fo"Debug\\" /Fd"Debug\vc110.pdb" /Gd /TP /analyze- /errorReport:prompt stdafx.cpp
         stdafx.cpp
         C:\Program Files (x86)\Microsoft Visual Studio 11.0\VC\bin\CL.exe /c /ZI /nologo /W3 /WX- /Od /Oy- /D WIN32 /D _DEBUG /D _CONSOLE /D _UNICODE /D UNICODE /Gm /EHsc /RTC1 /MDd /GS /fp:precise /Zc:wchar_t /Zc:forScope /Yu"stdafx.h" /Fp"Debug\PolynomialRootFinder.pch" /Fo"Debug\\" /Fd"Debug\vc110.pdb" /Gd /TP /analyze- /errorReport:prompt PolynomialRootFinder.cpp
         PolynomialRootFinder.cpp
       Link:
         C:\Program Files (x86)\Microsoft Visual Studio 11.0\VC\bin\link.exe /ERRORREPORT:PROMPT /OUT:"D:\Codes and Projects\Visual Studio 2012\Projects\polynomial\Debug\PolynomialRootFinder.exe" /INCREMENTAL /NOLOGO kernel32.lib user32.lib gdi32.lib winspool.lib comdlg32.lib advapi32.lib shell32.lib ole32.lib oleaut32.lib uuid.lib odbc32.lib odbccp32.lib /MANIFEST /MANIFESTUAC:"level='asInvoker' uiAccess='false'" /manifest:embed /DEBUG /PDB:"D:\Codes and Projects\Visual Studio 2012\Projects\polynomial\Debug\PolynomialRootFinder.pdb" /SUBSYSTEM:CONSOLE /TLBID:1 /DYNAMICBASE /NXCOMPAT /IMPLIB:"D:\Codes and Projects\Visual Studio 2012\Projects\polynomial\Debug\PolynomialRootFinder.lib" /MACHINE:X86 Debug\PolynomialRootFinder.obj
         Debug\stdafx.obj
         PolynomialRootFinder.vcxproj -> D:\Codes and Projects\Visual Studio 2012\Projects\polynomial\Debug\PolynomialRootFinder.exe
     1>Done Building Project "D:\Codes and Projects\Visual Studio 2012\Projects\polynomial\PolynomialRootFinder\PolynomialRootFinder.vcxproj" (Build target(s)).

Build succeeded.

Time Elapsed 00:00:07.17
